{"jsonrpc":"2.0","result":{"code":0,"message":"success","data":{"list":[{"id":14763,"user_id":129634,"content":"\u804a\u804a\u52a0\u606f\u5238\u6700\u591a\u662f\u52a0\u51e0\u70b9","views":98,"comment_num":8,"isgreat":0,"ishot":0,"title":"\u7f51\u5229\u793e\u533a","created_at":"2017-07-03 16:52:43","updated_at":"2017-07-09 13:40:51","user":{"id":249,"user_id":129634,"head_img":"https:\/\/www.wanglibao.com\/images\/bbs\/avatar1.png","phone":"13902242563","nickname":"wl249","isblack":0,"black_type_id":null,"black_time":null,"created_at":"2017-06-08 08:46:27","updated_at":"2017-06-08 08:46:27","isadmin":0},"comments":[{"id":20633,"user_id":1517018,"tid":14763,"content":"3\u7684\u6216\u80053.5","isverify":1,"verify_time":null,"created_at":"2017-07-05 10:19:19","updated_at":"2017-07-05 10:19:19","verify_label":null,"user":{"id":254,"user_id":1517018,"head_img":"https:\/\/www.wanglibao.com\/images\/bbs\/avatar4.png","phone":"18633660791","nickname":"\u6211\u8981\u7684\u5e78\u798f","isblack":0,"black_type_id":null,"black_time":null,"created_at":"2017-06-08 09:15:21","updated_at":"2017-06-09 11:09:53","isadmin":0}},{"id":20635,"user_id":1685266,"tid":14763,"content":"\u793e\u533a\u53ef\u4ee5\u9886\u4f53\u9a8c\u91d1\u4e86\u5417","isverify":1,"verify_time":null,"created_at":"2017-07-05 12:27:50","updated_at":"2017-07-05 12:27:50","verify_label":null,"user":{"id":932,"user_id":1685266,"head_img":"https:\/\/www.wanglibao.com\/images\/bbs\/avatar4.png","phone":"13682438100","nickname":"\u9633\u5b50l932","isblack":0,"black_type_id":null,"black_time":null,"created_at":"2017-06-10 23:22:40","updated_at":"2017-06-10 23:37:27","isadmin":0}}]},{"id":14168,"user_id":2371103,"content":"\u5404\u4f4d\u6295\u53cb \u5728\u7f51\u5229\u5b9d\u6295\u8d44\u5e74\u5316\u8fbe\u5230\u591a\u5c11","views":87,"comment_num":30,"isgreat":0,"ishot":0,"title":"\u7f51\u5229\u793e\u533a","created_at":"2017-06-23 17:00:58","updated_at":"2017-07-09 14:26:23","user":{"id":405,"user_id":2371103,"head_img":"https:\/\/www.wanglibao.com\/images\/bbs\/avatar1.png","phone":"15335021515","nickname":"wl405","isblack":0,"black_type_id":null,"black_time":null,"created_at":"2017-06-08 20:00:54","updated_at":"2017-06-08 20:00:54","isadmin":0},"comments":[{"id":19949,"user_id":1600955,"tid":14168,"content":"\u4e00\u67087%","isverify":1,"verify_time":"2017-06-23 17:49:45","created_at":"2017-06-23 17:09:19","updated_at":"2017-06-23 17:49:45","verify_label":null,"user":{"id":2247,"user_id":1600955,"head_img":"https:\/\/www.wanglibao.com\/images\/bbs\/avatar1.png","phone":"13939919798","nickname":"zm2247","isblack":0,"black_type_id":null,"black_time":null,"created_at":"2017-06-20 07:04:58","updated_at":"2017-06-23 21:23:47","isadmin":0}},{"id":19956,"user_id":30009,"tid":14168,"content":"14","isverify":1,"verify_time":"2017-06-23 17:49:40","created_at":"2017-06-23 17:18:43","updated_at":"2017-06-23 17:49:40","verify_label":null,"user":{"id":113,"user_id":30009,"head_img":"https:\/\/www.wanglibao.com\/images\/bbs\/avatar1.png","phone":"15156675908","nickname":"\u5434\u6602\u5229\u5b9d","isblack":0,"black_type_id":null,"black_time":null,"created_at":"2017-06-07 18:50:33","updated_at":"2017-06-09 09:30:43","isadmin":0}}]},{"id":661,"user_id":2234509,"content":"\u7f51\u5229\u5b9d\u662f\u54ea\u5bb6\u516c\u53f8\uff1f","views":143,"comment_num":56,"isgreat":0,"ishot":0,"title":"\u7f51\u5229\u793e\u533a","created_at":"2017-06-09 17:05:44","updated_at":"2017-07-09 14:25:42","user":{"id":4,"user_id":2234509,"head_img":"https:\/\/www.wanglibao.com\/images\/bbs\/avatar1.png","phone":"13051605413","nickname":"\u845b\u5c0f\u4ed1","isblack":0,"black_type_id":null,"black_time":null,"created_at":"2017-05-24 19:56:38","updated_at":"2017-06-28 17:20:08","isadmin":0},"comments":[{"id":1082,"user_id":1261399,"tid":661,"content":"P2P\u7684\u7fd8\u695a\u5462\uff01\u6211\u662f\u67e5\u770b\u4e86\u6392\u540d\u8fdb\u5165\u7f51\u5229\u5b9d\u7684\uff01","isverify":1,"verify_time":"2017-06-09 17:36:12","created_at":"2017-06-09 17:17:00","updated_at":"2017-06-09 17:36:12","verify_label":null,"user":{"id":592,"user_id":1261399,"head_img":"https:\/\/www.wanglibao.com\/images\/bbs\/avatar1.png","phone":"13313899768","nickname":"\u5c0f\u5c0f\u5c0f\u5c0f\u541b","isblack":0,"black_type_id":null,"black_time":null,"created_at":"2017-06-09 14:08:52","updated_at":"2017-06-09 14:20:47","isadmin":0}},{"id":1140,"user_id":2234509,"tid":661,"content":"\u5728\u54ea\u770b\u7684\u6392\u540d","isverify":1,"verify_time":"2017-06-09 18:14:12","created_at":"2017-06-09 17:50:29","updated_at":"2017-06-09 18:14:12","verify_label":null,"user":{"id":4,"user_id":2234509,"head_img":"https:\/\/www.wanglibao.com\/images\/bbs\/avatar1.png","phone":"13051605413","nickname":"\u845b\u5c0f\u4ed1","isblack":0,"black_type_id":null,"black_time":null,"created_at":"2017-05-24 19:56:38","updated_at":"2017-06-28 17:20:08","isadmin":0}}]},{"id":5705,"user_id":108113,"content":"\u7f51\u5229\u5b9d\u79ef\u5206\u5151\u636258888\u5143\uff0c\u6295\u8d44100\u514318\u6708\uff0c\u603b\u6536\u76ca40%","views":298,"comment_num":204,"isgreat":0,"ishot":0,"title":"\u7f51\u5229\u793e\u533a","created_at":"2017-06-16 15:11:59","updated_at":"2017-07-09 14:24:59","user":{"id":61,"user_id":108113,"head_img":"https:\/\/www.wanglibao.com\/images\/bbs\/avatar1.png","phone":"13697618390","nickname":"wl61","isblack":0,"black_type_id":null,"black_time":null,"created_at":"2017-06-07 14:25:50","updated_at":"2017-06-07 14:25:50","isadmin":0},"comments":[{"id":9160,"user_id":2157905,"tid":5705,"content":"\u725b\u4eba\u554a\uff01\u8ba1\u7b97\u4e86\u5f97","isverify":1,"verify_time":"2017-06-16 16:51:30","created_at":"2017-06-16 16:48:11","updated_at":"2017-06-16 16:51:30","verify_label":null,"user":{"id":851,"user_id":2157905,"head_img":"https:\/\/www.wanglibao.com\/images\/bbs\/avatar1.png","phone":"15079675297","nickname":"wl851","isblack":0,"black_type_id":null,"black_time":null,"created_at":"2017-06-10 13:59:54","updated_at":"2017-06-10 13:59:54","isadmin":0}},{"id":9228,"user_id":732476,"tid":5705,"content":"\u8001\u53f8\u673a\uff0c\u771f\u4f1a\u7406\u8d22!!!\u8d5e\u8d5e\u8d5e","isverify":1,"verify_time":"2017-06-18 13:33:38","created_at":"2017-06-16 19:08:59","updated_at":"2017-06-18 13:33:38","verify_label":null,"user":{"id":1739,"user_id":732476,"head_img":"https:\/\/www.wanglibao.com\/images\/bbs\/avatar2.png","phone":"13594312867","nickname":"wl1739","isblack":0,"black_type_id":null,"black_time":null,"created_at":"2017-06-16 18:54:00","updated_at":"2017-06-17 18:48:07","isadmin":0}}]},{"id":12540,"user_id":571972,"content":"\u7f51\u5229\u5b9d\u6d3b\u52a8\u592a\u7ed9\u529b\u4e86\uff0c\u7136\u540e\u6709\u70b9\u513f\u6015\u5462","views":245,"comment_num":66,"isgreat":0,"ishot":0,"title":"\u7f51\u5229\u793e\u533a","created_at":"2017-06-22 15:42:58","updated_at":"2017-07-09 14:24:08","user":{"id":1690,"user_id":571972,"head_img":"https:\/\/www.wanglibao.com\/images\/bbs\/avatar2.png","phone":"18737229124","nickname":"\u6162\u5999","isblack":0,"black_type_id":null,"black_time":null,"created_at":"2017-06-16 12:37:13","updated_at":"2017-06-16 12:38:44","isadmin":0},"comments":[{"id":18144,"user_id":571972,"tid":12540,"content":"\u771f\u7684\u6709\u70b9\u513f\u6015","isverify":1,"verify_time":"2017-06-22 16:08:55","created_at":"2017-06-22 15:43:48","updated_at":"2017-06-22 16:08:55","verify_label":null,"user":{"id":1690,"user_id":571972,"head_img":"https:\/\/www.wanglibao.com\/images\/bbs\/avatar2.png","phone":"18737229124","nickname":"\u6162\u5999","isblack":0,"black_type_id":null,"black_time":null,"created_at":"2017-06-16 12:37:13","updated_at":"2017-06-16 12:38:44","isadmin":0}},{"id":18237,"user_id":2089825,"tid":12540,"content":"\u6709\u4ec0\u4e48\u597d\u6015\u7684","isverify":1,"verify_time":"2017-06-23 14:44:24","created_at":"2017-06-22 17:08:57","updated_at":"2017-06-23 14:44:24","verify_label":null,"user":{"id":1637,"user_id":2089825,"head_img":"https:\/\/www.wanglibao.com\/images\/bbs\/avatar1.png","phone":"13061718354","nickname":"\u60a0\u60a0","isblack":0,"black_type_id":null,"black_time":null,"created_at":"2017-06-16 00:25:24","updated_at":"2017-06-16 00:28:48","isadmin":0}}]},{"id":14774,"user_id":30449,"content":"\u56de\u6b3e\u8ba1\u5212\u91cc\u53ea\u663e\u793a\u6bcf\u6708\u56de\u6b3e\u603b\u989d\uff0c\u8981\u662f\u80fd\u663e\u793a\u4e00\u4e0b\u6bcf\u6708\u5229\u606f\u603b\u989d\u5c31\u66f4\u597d\u4e86\u3002\u53ef\u4ee5\u77e5\u9053\u6bcf\u6708\u5728\u7f51\u5229\u541b\u8fd9\u91cc\u8d5a\u5230\u591a\u5c11\u94b1\ud83d\ude0a","views":15,"comment_num":2,"isgreat":0,"ishot":0,"title":"\u7f51\u5229\u793e\u533a","created_at":"2017-07-05 05:46:59","updated_at":"2017-07-09 12:22:52","user":{"id":856,"user_id":30449,"head_img":"https:\/\/www.wanglibao.com\/images\/bbs\/avatar1.png","phone":"13051888485","nickname":"wl856","isblack":0,"black_type_id":null,"black_time":null,"created_at":"2017-06-10 14:50:53","updated_at":"2017-06-10 14:50:53","isadmin":0},"comments":[{"id":20648,"user_id":2385945,"tid":14774,"content":"\u8bf4\u7684\u5bf9\uff01","isverify":1,"verify_time":null,"created_at":"2017-07-06 13:15:04","updated_at":"2017-07-06 13:15:04","verify_label":null,"user":{"id":2713,"user_id":2385945,"head_img":"https:\/\/www.wanglibao.com\/images\/bbs\/avatar1.png","phone":"13001395372","nickname":"wl2713","isblack":0,"black_type_id":null,"black_time":null,"created_at":"2017-06-23 10:40:37","updated_at":"2017-06-23 10:40:37","isadmin":0}},{"id":20651,"user_id":322173,"tid":14774,"content":"\u6700\u597d\u663e\u793a\u5df2\u7ecf\u56de\u6b3e\u597d\u591a\uff0c\u8fd8\u5269\u597d\u591a\uff1f","isverify":1,"verify_time":null,"created_at":"2017-07-06 20:54:00","updated_at":"2017-07-06 20:54:00","verify_label":null,"user":{"id":2665,"user_id":322173,"head_img":"https:\/\/www.wanglibao.com\/images\/bbs\/avatar1.png","phone":"13637938545","nickname":"wl2665","isblack":0,"black_type_id":null,"black_time":null,"created_at":"2017-06-22 21:38:53","updated_at":"2017-06-22 21:38:53","isadmin":0}}]},{"id":14788,"user_id":657834,"content":"\u6447\u4e00\u6447\u6447\u5565\u554a\uff01\u8fdb\u53bb\u4e86\u4e00\u52a8\u4e5f\u4e0d\u52a8\u3002\u600e\u4e48\u56de\u4e8b\u554a\uff1f","views":6,"comment_num":1,"isgreat":0,"ishot":0,"title":"\u7f51\u5229\u793e\u533a","created_at":"2017-07-07 11:05:50","updated_at":"2017-07-09 12:04:15","user":{"id":223,"user_id":657834,"head_img":"https:\/\/www.wanglibao.com\/images\/bbs\/avatar9.png","phone":"13814948900","nickname":"wwqwl223","isblack":0,"black_type_id":null,"black_time":null,"created_at":"2017-06-08 06:53:51","updated_at":"2017-06-08 08:53:26","isadmin":0},"comments":[{"id":20674,"user_id":108113,"tid":14788,"content":"\u50e7\u591a\u7ca5\u5c11","isverify":1,"verify_time":null,"created_at":"2017-07-08 21:07:09","updated_at":"2017-07-08 21:07:09","verify_label":null,"user":{"id":61,"user_id":108113,"head_img":"https:\/\/www.wanglibao.com\/images\/bbs\/avatar1.png","phone":"13697618390","nickname":"wl61","isblack":0,"black_type_id":null,"black_time":null,"created_at":"2017-06-07 14:25:50","updated_at":"2017-06-07 14:25:50","isadmin":0}}]},{"id":11538,"user_id":1797683,"content":"6\u67082\u65e5\uff0c\u7eff\u80fd\u5b9d\u903e\u671f\u9879\u76ee\u8d1f\u8d23\u4eba\u6bdb\u6bc5\u5cf0\u8868\u6001\uff0c\u7edd\u4e0d\u8dd1\u8def\u30026\u67086\u65e5\uff0c\u6bdb\u6bc5\u5cf0\u518d\u5ea6\u8868\u6001\uff0c\u6700\u6162\u4e5f\u4f1a\u572830\u5e74\u5185\u5b8c\u6210\u5168\u90e8\u5151\u4ed8\u30026\u670815\u65e5\uff0c\u6bdb\u6bc5\u5cf0\u5df2\u7ecf\u8bf7\u8f9e\uff0c\u5151\u4ed8\u8ba1\u5212\u524d\u666f\u96be\u6599\u3002\u4ece\u5151\u4ed8\u5371\u673a\u7206\u53d1\u5230\u73b0\u5728\uff0c\u4e24\u4e2a\u6708\u5185\u7eff\u80fd\u5b9d\u53ea\u5151\u4ed8\u4e86\u4e0d\u5230300\u4e07\u5143\u3002\u4e0e2.2\u4ebf\u5143\u7684\u903e\u671f\u652f\u4ed8\u79df\u91d1\u76f8\u53bb\u751a\u8fdc\u3002\u4e0e\u6b64\u540c\u65f6\uff0c\u7eff\u80fd\u5b9d\u6bcd\u516c\u53f8SPI\u4ecd\u5f98\u5f8a\u5728\u9000\u5e02\u8fb9\u7f18\u3002","views":185,"comment_num":23,"isgreat":0,"ishot":0,"title":"\u7f51\u5229\u793e\u533a","created_at":"2017-06-22 07:31:18","updated_at":"2017-07-09 11:01:45","user":{"id":1239,"user_id":1797683,"head_img":"https:\/\/www.wanglibao.com\/images\/bbs\/avatar1.png","phone":"13918914335","nickname":"flh_wlb","isblack":0,"black_type_id":null,"black_time":null,"created_at":"2017-06-12 22:21:49","updated_at":"2017-06-12 22:22:20","isadmin":0},"comments":[{"id":16972,"user_id":1797683,"tid":11538,"content":"\u6c99\u53d1","isverify":1,"verify_time":"2017-06-23 18:57:31","created_at":"2017-06-22 07:46:12","updated_at":"2017-06-23 18:57:31","verify_label":null,"user":{"id":1239,"user_id":1797683,"head_img":"https:\/\/www.wanglibao.com\/images\/bbs\/avatar1.png","phone":"13918914335","nickname":"flh_wlb","isblack":0,"black_type_id":null,"black_time":null,"created_at":"2017-06-12 22:21:49","updated_at":"2017-06-12 22:22:20","isadmin":0}},{"id":20203,"user_id":2330589,"tid":11538,"content":"\u8bf4\u7684\u597d\u542c\uff0c\u505a\u7684\u592a\u5c11\u3002","isverify":1,"verify_time":"2017-06-26 11:52:12","created_at":"2017-06-24 07:51:46","updated_at":"2017-06-26 11:52:12","verify_label":null,"user":{"id":752,"user_id":2330589,"head_img":"https:\/\/www.wanglibao.com\/images\/bbs\/avatar2.png","phone":"18671606257","nickname":"\u6c99\u6fa7\u548c\u98ce","isblack":0,"black_type_id":null,"black_time":null,"created_at":"2017-06-10 06:45:51","updated_at":"2017-06-12 18:47:20","isadmin":0}}]},{"id":5315,"user_id":2234509,"content":"\u80fd\u4e0d\u80fd\u6dfb\u52a0\u4e00\u4e2a\u6bb5\u5b50\u677f\u5757","views":82,"comment_num":105,"isgreat":0,"ishot":0,"title":"\u7f51\u5229\u793e\u533a","created_at":"2017-06-16 09:21:04","updated_at":"2017-07-09 10:38:50","user":{"id":4,"user_id":2234509,"head_img":"https:\/\/www.wanglibao.com\/images\/bbs\/avatar1.png","phone":"13051605413","nickname":"\u845b\u5c0f\u4ed1","isblack":0,"black_type_id":null,"black_time":null,"created_at":"2017-05-24 19:56:38","updated_at":"2017-06-28 17:20:08","isadmin":0},"comments":[{"id":12491,"user_id":1429520,"tid":5315,"content":"\u3002\u3002\u3002\u3002","isverify":1,"verify_time":"2017-06-19 14:26:30","created_at":"2017-06-19 14:20:18","updated_at":"2017-06-19 14:26:30","verify_label":null,"user":{"id":2091,"user_id":1429520,"head_img":"https:\/\/www.wanglibao.com\/images\/bbs\/avatar1.png","phone":"15035440477","nickname":"pingan","isblack":0,"black_type_id":null,"black_time":null,"created_at":"2017-06-19 14:17:36","updated_at":"2017-06-19 14:33:52","isadmin":0}},{"id":13971,"user_id":1268682,"tid":5315,"content":"\u597d\u591a\u5e16\u5b50\u90fd\u662f\u5427","isverify":1,"verify_time":"2017-06-20 15:02:30","created_at":"2017-06-20 11:22:46","updated_at":"2017-06-20 15:02:30","verify_label":null,"user":{"id":226,"user_id":1268682,"head_img":"https:\/\/www.wanglibao.com\/images\/bbs\/avatar8.png","phone":"13927862336","nickname":"L\u82b1\u751f","isblack":0,"black_type_id":null,"black_time":null,"created_at":"2017-06-08 07:12:18","updated_at":"2017-06-13 07:15:56","isadmin":0}}]},{"id":14106,"user_id":2371103,"content":"\u53d1\u5e16\u5b8c\u6210\u4efb\u52a1:\u7a81\u7136\u60f3\u8d77\u4e00\u4e2a\u6bb5\u5b50\uff1a\u73b0\u5728\u7092\u5927A\u80a1\u7684\u611f\u53d7\u662f\uff0c\u88ab\u4eba\u5f3a\u5978\u51e0\u904d\u8fd8\u820d\u4e0d\u5f97\u4e0b\u5e8a\uff0c\u5bf9\u65b9\u6bcf\u638f\u53e3\u888b\u90fd\u4ee5\u4e3a\u662f\u5728\u638f\u94b1\uff0c\u7ed3\u679c\u53c8\u4e00\u6b21\u7684\u638f\u51fa\u4e2a\u5957\u5b50\uff0c\u518d\u6765\u4e00\u904d\u2026\u2026\u6700\u540e\u5fcd\u65e0\u53ef\u5fcd\uff0c\u62a5\u4e86110\uff01\u5bf9\u65b9\u4e0b\u5e8a\u540e\u7a7f\u4e0a\u8b66\u670d\u63a5\u4e86\u4e2a\u7535\u8bdd\u8bf4\uff1a\u660e\u767d\u660e\u767d\uff0c\u6211\u5df2\u5230\u8fbe\u73b0\u573a\u3002","views":30,"comment_num":1,"isgreat":0,"ishot":0,"title":"\u7f51\u5229\u793e\u533a","created_at":"2017-06-23 16:01:04","updated_at":"2017-07-09 10:35:11","user":{"id":405,"user_id":2371103,"head_img":"https:\/\/www.wanglibao.com\/images\/bbs\/avatar1.png","phone":"15335021515","nickname":"wl405","isblack":0,"black_type_id":null,"black_time":null,"created_at":"2017-06-08 20:00:54","updated_at":"2017-06-08 20:00:54","isadmin":0},"comments":[{"id":19954,"user_id":30009,"tid":14106,"content":"\u6c99\u53d1","isverify":1,"verify_time":"2017-06-23 17:49:41","created_at":"2017-06-23 17:17:56","updated_at":"2017-06-23 17:49:41","verify_label":null,"user":{"id":113,"user_id":30009,"head_img":"https:\/\/www.wanglibao.com\/images\/bbs\/avatar1.png","phone":"15156675908","nickname":"\u5434\u6602\u5229\u5b9d","isblack":0,"black_type_id":null,"black_time":null,"created_at":"2017-06-07 18:50:33","updated_at":"2017-06-09 09:30:43","isadmin":0}}]}],"total":10590,"per_page":10,"current_page":1,"last_page":1059,"from":1,"to":10}},"id":1}
